Reading Planetary Computer Data using CQL2 filter extension • rstac
…
items_assets(selected_item)
#>  [1] "qa"               "ang"              "red"              "blue"            
#>  [5] "drad"             "emis"             "emsd"             "trad"            
#>  [9] "urad"             "atran"            "cdist"            "green"           
#> [13] "nir08"            "lwir11"           "swir16"           "swir22"          
#> [17] "coastal"          "mtl.txt"          "mtl.xml"          "mtl.json"        
#> [21] "qa_pixel"         "qa_radsat"        "qa_aerosol"       "tilejson"        
#> [25] "rendered_preview"

map_dfr(items_assets(selected_item), function(key) {
  tibble(asset = key, description = selected_item$assets[[key]]$title)
})
#> # A tibble: 25 × 2
#>    asset description                                
#>    <chr> <chr>                                      
#>  1 qa    Surface Temperature Quality Assessment Band
#>  2 ang   Angle Coefficients File                    
#>  3 red   Red Band                                   
#>  4 blue  Blue Band                                  
#>  5 drad  Downwelled Radiance Band                   
#>  6 emis  Emissivity Band                            
#>  7 emsd  Emissivity Standard Deviation Band         
#>  8 trad  Thermal Radiance Band                      
#>  9 urad  Upwelled Radiance Band                     
#> 10 atran Atmospheric Transmittance Band             
#> # ℹ 15 more rows
…
Working with STAC Catalogs and Collections

STAC organizes items in catalogs (STACCatalog) and
collections (STACCollection). These JSON documents contains
metadata of the dataset they refer to. For instance, here we look at the
Bands
available for Landsat
8 Collection 2 Level 2 data:

landsat <- planetary_computer %>%
  collections(collection_id = "landsat-c2-l2") %>%
  get_request()

map_dfr(landsat$summaries$`eo:bands`, as_tibble)
#> # A tibble: 22 × 5
#>    name   common_name description          center_wavelength full_width_half_max
#>    <chr>  <chr>       <chr>                            <dbl>               <dbl>
#>  1 TM_B1  blue        Visible blue (Thema…              0.49                0.07
#>  2 TM_B2  green       Visible green (Them…              0.56                0.08
#>  3 TM_B3  red         Visible red (Themat…              0.66                0.06
#>  4 TM_B4  nir08       Near infrared (Them…              0.83                0.14
#>  5 TM_B5  swir16      Short-wave infrared…              1.65                0.2 
#>  6 TM_B6  lwir        Long-wave infrared …             11.4                 2.1 
#>  7 TM_B7  swir22      Short-wave infrared…              2.22                0.27
#>  8 ETM_B1 blue        Visible blue (Enhan…              0.48                0.07
#>  9 ETM_B2 green       Visible green (Enha…              0.56                0.08
#> 10 ETM_B3 red         Visible red (Enhanc…              0.66                0.06
#> # ℹ 12 more rows

We can see what Assets
are available on our item with:

map_dfr(landsat$item_assets, function(x) {
    as_tibble(
      compact(x[c("title", "description", "gsd")])
    )
})
#> # A tibble: 25 × 3
#>    title                                       description                   gsd
#>    <chr>                                       <chr>                       <int>
#>  1 Surface Temperature Quality Assessment Band Collection 2 Level-2 Quali…    NA
#>  2 Angle Coefficients File                     Collection 2 Level-1 Angle…    NA
#>  3 Red Band                                    NA                             NA
#>  4 Blue Band                                   NA                             NA
#>  5 Downwelled Radiance Band                    Collection 2 Level-2 Downw…    NA
#>  6 Emissivity Band                             Collection 2 Level-2 Emiss…    NA
#>  7 Emissivity Standard Deviation Band          Collection 2 Level-2 Emiss…    NA
#>  8 Surface Temperature Band                    Collection 2 Level-2 Therm…    NA
#>  9 Thermal Radiance Band                       Collection 2 Level-2 Therm…    NA
#> 10 Upwelled Radiance Band                      Collection 2 Level-2 Upwel…    NA
#> # ℹ 15 more rows
…
